Sleep Health Lifestyle
…
Visualize data distribution

One of the most important aspect of data analysis is sampling. To ask right questions, it is imperative to see data distribution for each parameter and determine factors that could bias the analysis. Here, we will check data sampling based on human factors such as age, gender, occupation, etc.

Distribution <- sleep_health |>
  select(age, gender, occupation) |>
  group_by(age, gender, occupation) |>
  summarise(total = n())

`summarise()` has grouped output by 'age', 'gender'. You can override using the
`.groups` argument.

Distribution

# A tibble: 68 × 4
# Groups:   age, gender [46]
     age gender occupation        total
   <dbl> <chr>  <chr>             <int>
 1    27 Male   Software Engineer     1
 2    28 Male   Doctor                2
 3    28 Male   Salesperson           2
 4    28 Male   Software Engineer     1
 5    29 Female Nurse                 2
 6    29 Male   Doctor               10
 7    29 Male   Teacher               1
 8    30 Female Nurse                 2
 9    30 Male   Doctor               11
10    31 Female Nurse                 1
# ℹ 58 more rows
…
